../hex_price_1 arabnejad 10 ../data/workflows/cybershake/cybershake30_10 ../data/platforms/AL100_PRICE1.xml 0.25 0.0 900 200 0.2
../hex_price_1 arabnejad 10 ../data/workflows/cybershake/cybershake30_10 ../data/platforms/AL100_PRICE1.xml 0.25 0.0 900 175 0.2
../hex_price_1 arabnejad 10 ../data/workflows/cybershake/cybershake30_10 ../data/platforms/AL100_PRICE1.xml 0.25 0.0 900 150 0.2
../hex_price_1 arabnejad 10 ../data/workflows/cybershake/cybershake30_10 ../data/platforms/AL100_PRICE1.xml 0.25 0.0 900 250 0.2
../hex_price_1 arabnejad 10 ../data/workflows/cybershake/cybershake30_10 ../data/platforms/AL100_PRICE1.xml 0.25 0.0 900 225 0.2
../hex_price_1 arabnejad 11 ../data/workflows/cybershake/cybershake30_11 ../data/platforms/AL100_PRICE1.xml 0.25 0.0 900 150 0.2
../hex_price_1 arabnejad 11 ../data/workflows/cybershake/cybershake30_11 ../data/platforms/AL100_PRICE1.xml 0.25 0.0 900 175 0.2
../hex_price_1 arabnejad 11 ../data/workflows/cybershake/cybershake30_11 ../data/platforms/AL100_PRICE1.xml 0.25 0.0 900 225 0.2
../hex_price_1 arabnejad 11 ../data/workflows/cybershake/cybershake30_11 ../data/platforms/AL100_PRICE1.xml 0.25 0.0 900 200 0.2
../hex_price_1 arabnejad 12 ../data/workflows/cybershake/cybershake30_12 ../data/platforms/AL100_PRICE1.xml 0.25 0.0 900 150 0.2
../hex_price_1 arabnejad 11 ../data/workflows/cybershake/cybershake30_11 ../data/platforms/AL100_PRICE1.xml 0.25 0.0 900 250 0.2
../hex_price_1 arabnejad 12 ../data/workflows/cybershake/cybershake30_12 ../data/platforms/AL100_PRICE1.xml 0.25 0.0 900 175 0.2
../hex_price_1 arabnejad 12 ../data/workflows/cybershake/cybershake30_12 ../data/platforms/AL100_PRICE1.xml 0.25 0.0 900 200 0.2
../hex_price_1 arabnejad 13 ../data/workflows/cybershake/cybershake30_13 ../data/platforms/AL100_PRICE1.xml 0.25 0.0 900 175 0.2
../hex_price_1 arabnejad 12 ../data/workflows/cybershake/cybershake30_12 ../data/platforms/AL100_PRICE1.xml 0.25 0.0 900 250 0.2
../hex_price_1 arabnejad 12 ../data/workflows/cybershake/cybershake30_12 ../data/platforms/AL100_PRICE1.xml 0.25 0.0 900 225 0.2
../hex_price_1 arabnejad 13 ../data/workflows/cybershake/cybershake30_13 ../data/platforms/AL100_PRICE1.xml 0.25 0.0 900 150 0.2
../hex_price_1 arabnejad 14 ../data/workflows/cybershake/cybershake30_14 ../data/platforms/AL100_PRICE1.xml 0.25 0.0 900 200 0.2
../hex_price_1 arabnejad 14 ../data/workflows/cybershake/cybershake30_14 ../data/platforms/AL100_PRICE1.xml 0.25 0.0 900 150 0.2
../hex_price_1 arabnejad 14 ../data/workflows/cybershake/cybershake30_14 ../data/platforms/AL100_PRICE1.xml 0.25 0.0 900 175 0.2
../hex_price_1 arabnejad 13 ../data/workflows/cybershake/cybershake30_13 ../data/platforms/AL100_PRICE1.xml 0.25 0.0 900 200 0.2
../hex_price_1 arabnejad 13 ../data/workflows/cybershake/cybershake30_13 ../data/platforms/AL100_PRICE1.xml 0.25 0.0 900 225 0.2
../hex_price_1 arabnejad 15 ../data/workflows/cybershake/cybershake30_15 ../data/platforms/AL100_PRICE1.xml 0.25 0.0 900 150 0.2
../hex_price_1 arabnejad 15 ../data/workflows/cybershake/cybershake30_15 ../data/platforms/AL100_PRICE1.xml 0.25 0.0 900 175 0.2
../hex_price_1 arabnejad 14 ../data/workflows/cybershake/cybershake30_14 ../data/platforms/AL100_PRICE1.xml 0.25 0.0 900 225 0.2
../hex_price_1 arabnejad 15 ../data/workflows/cybershake/cybershake30_15 ../data/platforms/AL100_PRICE1.xml 0.25 0.0 900 200 0.2
../hex_price_1 arabnejad 15 ../data/workflows/cybershake/cybershake30_15 ../data/platforms/AL100_PRICE1.xml 0.25 0.0 900 250 0.2
../hex_price_1 arabnejad 15 ../data/workflows/cybershake/cybershake30_15 ../data/platforms/AL100_PRICE1.xml 0.25 0.0 900 225 0.2
../hex_price_1 arabnejad 16 ../data/workflows/cybershake/cybershake30_16 ../data/platforms/AL100_PRICE1.xml 0.25 0.0 900 150 0.2
../hex_price_1 arabnejad 16 ../data/workflows/cybershake/cybershake30_16 ../data/platforms/AL100_PRICE1.xml 0.25 0.0 900 175 0.2
../hex_price_1 arabnejad 16 ../data/workflows/cybershake/cybershake30_16 ../data/platforms/AL100_PRICE1.xml 0.25 0.0 900 225 0.2
../hex_price_1 arabnejad 16 ../data/workflows/cybershake/cybershake30_16 ../data/platforms/AL100_PRICE1.xml 0.25 0.0 900 200 0.2
../hex_price_1 arabnejad 17 ../data/workflows/cybershake/cybershake30_17 ../data/platforms/AL100_PRICE1.xml 0.25 0.0 900 150 0.2
../hex_price_1 arabnejad 17 ../data/workflows/cybershake/cybershake30_17 ../data/platforms/AL100_PRICE1.xml 0.25 0.0 900 175 0.2
../hex_price_1 arabnejad 17 ../data/workflows/cybershake/cybershake30_17 ../data/platforms/AL100_PRICE1.xml 0.25 0.0 900 250 0.2
../hex_price_1 arabnejad 17 ../data/workflows/cybershake/cybershake30_17 ../data/platforms/AL100_PRICE1.xml 0.25 0.0 900 225 0.2
../hex_price_1 arabnejad 18 ../data/workflows/cybershake/cybershake30_18 ../data/platforms/AL100_PRICE1.xml 0.25 0.0 900 150 0.2
../hex_price_1 arabnejad 18 ../data/workflows/cybershake/cybershake30_18 ../data/platforms/AL100_PRICE1.xml 0.25 0.0 900 175 0.2
../hex_price_1 arabnejad 17 ../data/workflows/cybershake/cybershake30_17 ../data/platforms/AL100_PRICE1.xml 0.25 0.0 900 200 0.2
../hex_price_1 arabnejad 18 ../data/workflows/cybershake/cybershake30_18 ../data/platforms/AL100_PRICE1.xml 0.25 0.0 900 200 0.2
../hex_price_1 arabnejad 18 ../data/workflows/cybershake/cybershake30_18 ../data/platforms/AL100_PRICE1.xml 0.25 0.0 900 225 0.2
../hex_price_1 arabnejad 19 ../data/workflows/cybershake/cybershake30_19 ../data/platforms/AL100_PRICE1.xml 0.25 0.0 900 200 0.2
../hex_price_1 arabnejad 18 ../data/workflows/cybershake/cybershake30_18 ../data/platforms/AL100_PRICE1.xml 0.25 0.0 900 250 0.2
../hex_price_1 arabnejad 19 ../data/workflows/cybershake/cybershake30_19 ../data/platforms/AL100_PRICE1.xml 0.25 0.0 900 150 0.2
../hex_price_1 arabnejad 19 ../data/workflows/cybershake/cybershake30_19 ../data/platforms/AL100_PRICE1.xml 0.25 0.0 900 175 0.2
../hex_price_1 arabnejad 19 ../data/workflows/cybershake/cybershake30_19 ../data/platforms/AL100_PRICE1.xml 0.25 0.0 900 225 0.2
../hex_price_1 arabnejad 19 ../data/workflows/cybershake/cybershake30_19 ../data/platforms/AL100_PRICE1.xml 0.25 0.0 900 250 0.2
../hex_price_1 arabnejad 1 ../data/workflows/cybershake/cybershake30_1 ../data/platforms/AL100_PRICE1.xml 0.25 0.0 900 200 0.2
../hex_price_1 arabnejad 1 ../data/workflows/cybershake/cybershake30_1 ../data/platforms/AL100_PRICE1.xml 0.25 0.0 900 150 0.2
../hex_price_1 arabnejad 1 ../data/workflows/cybershake/cybershake30_1 ../data/platforms/AL100_PRICE1.xml 0.25 0.0 900 175 0.2
../hex_price_1 arabnejad 1 ../data/workflows/cybershake/cybershake30_1 ../data/platforms/AL100_PRICE1.xml 0.25 0.0 900 275 0.2
../hex_price_1 arabnejad 1 ../data/workflows/cybershake/cybershake30_1 ../data/platforms/AL100_PRICE1.xml 0.25 0.0 900 225 0.2
../hex_price_1 arabnejad 1 ../data/workflows/cybershake/cybershake30_1 ../data/platforms/AL100_PRICE1.xml 0.25 0.0 900 250 0.2
../hex_price_1 arabnejad 20 ../data/workflows/cybershake/cybershake30_20 ../data/platforms/AL100_PRICE1.xml 0.25 0.0 900 150 0.2
../hex_price_1 arabnejad 20 ../data/workflows/cybershake/cybershake30_20 ../data/platforms/AL100_PRICE1.xml 0.25 0.0 900 200 0.2
../hex_price_1 arabnejad 20 ../data/workflows/cybershake/cybershake30_20 ../data/platforms/AL100_PRICE1.xml 0.25 0.0 900 175 0.2
../hex_price_1 arabnejad 21 ../data/workflows/cybershake/cybershake30_21 ../data/platforms/AL100_PRICE1.xml 0.25 0.0 900 150 0.2
../hex_price_1 arabnejad 20 ../data/workflows/cybershake/cybershake30_20 ../data/platforms/AL100_PRICE1.xml 0.25 0.0 900 225 0.2
../hex_price_1 arabnejad 20 ../data/workflows/cybershake/cybershake30_20 ../data/platforms/AL100_PRICE1.xml 0.25 0.0 900 250 0.2
../hex_price_1 arabnejad 20 ../data/workflows/cybershake/cybershake30_20 ../data/platforms/AL100_PRICE1.xml 0.25 0.0 900 275 0.2
../hex_price_1 arabnejad 21 ../data/workflows/cybershake/cybershake30_21 ../data/platforms/AL100_PRICE1.xml 0.25 0.0 900 175 0.2
../hex_price_1 arabnejad 21 ../data/workflows/cybershake/cybershake30_21 ../data/platforms/AL100_PRICE1.xml 0.25 0.0 900 200 0.2
../hex_price_1 arabnejad 22 ../data/workflows/cybershake/cybershake30_22 ../data/platforms/AL100_PRICE1.xml 0.25 0.0 900 150 0.2
../hex_price_1 arabnejad 21 ../data/workflows/cybershake/cybershake30_21 ../data/platforms/AL100_PRICE1.xml 0.25 0.0 900 225 0.2
../hex_price_1 arabnejad 22 ../data/workflows/cybershake/cybershake30_22 ../data/platforms/AL100_PRICE1.xml 0.25 0.0 900 200 0.2
../hex_price_1 arabnejad 22 ../data/workflows/cybershake/cybershake30_22 ../data/platforms/AL100_PRICE1.xml 0.25 0.0 900 175 0.2
../hex_price_1 arabnejad 22 ../data/workflows/cybershake/cybershake30_22 ../data/platforms/AL100_PRICE1.xml 0.25 0.0 900 225 0.2
../hex_price_1 arabnejad 22 ../data/workflows/cybershake/cybershake30_22 ../data/platforms/AL100_PRICE1.xml 0.25 0.0 900 250 0.2
../hex_price_1 arabnejad 23 ../data/workflows/cybershake/cybershake30_23 ../data/platforms/AL100_PRICE1.xml 0.25 0.0 900 150 0.2
../hex_price_1 arabnejad 23 ../data/workflows/cybershake/cybershake30_23 ../data/platforms/AL100_PRICE1.xml 0.25 0.0 900 200 0.2
../hex_price_1 arabnejad 23 ../data/workflows/cybershake/cybershake30_23 ../data/platforms/AL100_PRICE1.xml 0.25 0.0 900 175 0.2
../hex_price_1 arabnejad 23 ../data/workflows/cybershake/cybershake30_23 ../data/platforms/AL100_PRICE1.xml 0.25 0.0 900 225 0.2
../hex_price_1 arabnejad 23 ../data/workflows/cybershake/cybershake30_23 ../data/platforms/AL100_PRICE1.xml 0.25 0.0 900 250 0.2
../hex_price_1 arabnejad 24 ../data/workflows/cybershake/cybershake30_24 ../data/platforms/AL100_PRICE1.xml 0.25 0.0 900 150 0.2
../hex_price_1 arabnejad 24 ../data/workflows/cybershake/cybershake30_24 ../data/platforms/AL100_PRICE1.xml 0.25 0.0 900 175 0.2
../hex_price_1 arabnejad 24 ../data/workflows/cybershake/cybershake30_24 ../data/platforms/AL100_PRICE1.xml 0.25 0.0 900 200 0.2
../hex_price_1 arabnejad 24 ../data/workflows/cybershake/cybershake30_24 ../data/platforms/AL100_PRICE1.xml 0.25 0.0 900 250 0.2
../hex_price_1 arabnejad 24 ../data/workflows/cybershake/cybershake30_24 ../data/platforms/AL100_PRICE1.xml 0.25 0.0 900 225 0.2
../hex_price_1 arabnejad 25 ../data/workflows/cybershake/cybershake30_25 ../data/platforms/AL100_PRICE1.xml 0.25 0.0 900 150 0.2
../hex_price_1 arabnejad 25 ../data/workflows/cybershake/cybershake30_25 ../data/platforms/AL100_PRICE1.xml 0.25 0.0 900 175 0.2
../hex_price_1 arabnejad 25 ../data/workflows/cybershake/cybershake30_25 ../data/platforms/AL100_PRICE1.xml 0.25 0.0 900 200 0.2
../hex_price_1 arabnejad 25 ../data/workflows/cybershake/cybershake30_25 ../data/platforms/AL100_PRICE1.xml 0.25 0.0 900 225 0.2
../hex_price_1 arabnejad 26 ../data/workflows/cybershake/cybershake30_26 ../data/platforms/AL100_PRICE1.xml 0.25 0.0 900 150 0.2
../hex_price_1 arabnejad 26 ../data/workflows/cybershake/cybershake30_26 ../data/platforms/AL100_PRICE1.xml 0.25 0.0 900 175 0.2
../hex_price_1 arabnejad 26 ../data/workflows/cybershake/cybershake30_26 ../data/platforms/AL100_PRICE1.xml 0.25 0.0 900 200 0.2
../hex_price_1 arabnejad 26 ../data/workflows/cybershake/cybershake30_26 ../data/platforms/AL100_PRICE1.xml 0.25 0.0 900 225 0.2
../hex_price_1 arabnejad 26 ../data/workflows/cybershake/cybershake30_26 ../data/platforms/AL100_PRICE1.xml 0.25 0.0 900 250 0.2
../hex_price_1 arabnejad 27 ../data/workflows/cybershake/cybershake30_27 ../data/platforms/AL100_PRICE1.xml 0.25 0.0 900 150 0.2
../hex_price_1 arabnejad 27 ../data/workflows/cybershake/cybershake30_27 ../data/platforms/AL100_PRICE1.xml 0.25 0.0 900 175 0.2
../hex_price_1 arabnejad 26 ../data/workflows/cybershake/cybershake30_26 ../data/platforms/AL100_PRICE1.xml 0.25 0.0 900 275 0.2
../hex_price_1 arabnejad 27 ../data/workflows/cybershake/cybershake30_27 ../data/platforms/AL100_PRICE1.xml 0.25 0.0 900 200 0.2
../hex_price_1 arabnejad 27 ../data/workflows/cybershake/cybershake30_27 ../data/platforms/AL100_PRICE1.xml 0.25 0.0 900 225 0.2
../hex_price_1 arabnejad 27 ../data/workflows/cybershake/cybershake30_27 ../data/platforms/AL100_PRICE1.xml 0.25 0.0 900 250 0.2
../hex_price_1 arabnejad 27 ../data/workflows/cybershake/cybershake30_27 ../data/platforms/AL100_PRICE1.xml 0.25 0.0 900 275 0.2
../hex_price_1 arabnejad 28 ../data/workflows/cybershake/cybershake30_28 ../data/platforms/AL100_PRICE1.xml 0.25 0.0 900 150 0.2
../hex_price_1 arabnejad 28 ../data/workflows/cybershake/cybershake30_28 ../data/platforms/AL100_PRICE1.xml 0.25 0.0 900 175 0.2
../hex_price_1 arabnejad 28 ../data/workflows/cybershake/cybershake30_28 ../data/platforms/AL100_PRICE1.xml 0.25 0.0 900 200 0.2
../hex_price_1 arabnejad 28 ../data/workflows/cybershake/cybershake30_28 ../data/platforms/AL100_PRICE1.xml 0.25 0.0 900 250 0.2
../hex_price_1 arabnejad 28 ../data/workflows/cybershake/cybershake30_28 ../data/platforms/AL100_PRICE1.xml 0.25 0.0 900 225 0.2
../hex_price_1 arabnejad 29 ../data/workflows/cybershake/cybershake30_29 ../data/platforms/AL100_PRICE1.xml 0.25 0.0 900 150 0.2
../hex_price_1 arabnejad 29 ../data/workflows/cybershake/cybershake30_29 ../data/platforms/AL100_PRICE1.xml 0.25 0.0 900 175 0.2
../hex_price_1 arabnejad 29 ../data/workflows/cybershake/cybershake30_29 ../data/platforms/AL100_PRICE1.xml 0.25 0.0 900 200 0.2
../hex_price_1 arabnejad 29 ../data/workflows/cybershake/cybershake30_29 ../data/platforms/AL100_PRICE1.xml 0.25 0.0 900 225 0.2
../hex_price_1 arabnejad 29 ../data/workflows/cybershake/cybershake30_29 ../data/platforms/AL100_PRICE1.xml 0.25 0.0 900 250 0.2
../hex_price_1 arabnejad 2 ../data/workflows/cybershake/cybershake30_2 ../data/platforms/AL100_PRICE1.xml 0.25 0.0 900 150 0.2
../hex_price_1 arabnejad 2 ../data/workflows/cybershake/cybershake30_2 ../data/platforms/AL100_PRICE1.xml 0.25 0.0 900 175 0.2
../hex_price_1 arabnejad 2 ../data/workflows/cybershake/cybershake30_2 ../data/platforms/AL100_PRICE1.xml 0.25 0.0 900 200 0.2
../hex_price_1 arabnejad 2 ../data/workflows/cybershake/cybershake30_2 ../data/platforms/AL100_PRICE1.xml 0.25 0.0 900 225 0.2
../hex_price_1 arabnejad 2 ../data/workflows/cybershake/cybershake30_2 ../data/platforms/AL100_PRICE1.xml 0.25 0.0 900 250 0.2
../hex_price_1 arabnejad 30 ../data/workflows/cybershake/cybershake30_30 ../data/platforms/AL100_PRICE1.xml 0.25 0.0 900 150 0.2
../hex_price_1 arabnejad 30 ../data/workflows/cybershake/cybershake30_30 ../data/platforms/AL100_PRICE1.xml 0.25 0.0 900 175 0.2
../hex_price_1 arabnejad 30 ../data/workflows/cybershake/cybershake30_30 ../data/platforms/AL100_PRICE1.xml 0.25 0.0 900 200 0.2
../hex_price_1 arabnejad 30 ../data/workflows/cybershake/cybershake30_30 ../data/platforms/AL100_PRICE1.xml 0.25 0.0 900 225 0.2
../hex_price_1 arabnejad 30 ../data/workflows/cybershake/cybershake30_30 ../data/platforms/AL100_PRICE1.xml 0.25 0.0 900 250 0.2
../hex_price_1 arabnejad 30 ../data/workflows/cybershake/cybershake30_30 ../data/platforms/AL100_PRICE1.xml 0.25 0.0 900 275 0.2
../hex_price_1 arabnejad 3 ../data/workflows/cybershake/cybershake30_3 ../data/platforms/AL100_PRICE1.xml 0.25 0.0 900 175 0.2
../hex_price_1 arabnejad 3 ../data/workflows/cybershake/cybershake30_3 ../data/platforms/AL100_PRICE1.xml 0.25 0.0 900 150 0.2
../hex_price_1 arabnejad 3 ../data/workflows/cybershake/cybershake30_3 ../data/platforms/AL100_PRICE1.xml 0.25 0.0 900 200 0.2
../hex_price_1 arabnejad 3 ../data/workflows/cybershake/cybershake30_3 ../data/platforms/AL100_PRICE1.xml 0.25 0.0 900 225 0.2
../hex_price_1 arabnejad 3 ../data/workflows/cybershake/cybershake30_3 ../data/platforms/AL100_PRICE1.xml 0.25 0.0 900 250 0.2
../hex_price_1 arabnejad 4 ../data/workflows/cybershake/cybershake30_4 ../data/platforms/AL100_PRICE1.xml 0.25 0.0 900 150 0.2
../hex_price_1 arabnejad 4 ../data/workflows/cybershake/cybershake30_4 ../data/platforms/AL100_PRICE1.xml 0.25 0.0 900 175 0.2
../hex_price_1 arabnejad 4 ../data/workflows/cybershake/cybershake30_4 ../data/platforms/AL100_PRICE1.xml 0.25 0.0 900 200 0.2
../hex_price_1 arabnejad 4 ../data/workflows/cybershake/cybershake30_4 ../data/platforms/AL100_PRICE1.xml 0.25 0.0 900 225 0.2
../hex_price_1 arabnejad 4 ../data/workflows/cybershake/cybershake30_4 ../data/platforms/AL100_PRICE1.xml 0.25 0.0 900 275 0.2
../hex_price_1 arabnejad 4 ../data/workflows/cybershake/cybershake30_4 ../data/platforms/AL100_PRICE1.xml 0.25 0.0 900 250 0.2
../hex_price_1 arabnejad 5 ../data/workflows/cybershake/cybershake30_5 ../data/platforms/AL100_PRICE1.xml 0.25 0.0 900 150 0.2
../hex_price_1 arabnejad 5 ../data/workflows/cybershake/cybershake30_5 ../data/platforms/AL100_PRICE1.xml 0.25 0.0 900 175 0.2
../hex_price_1 arabnejad 5 ../data/workflows/cybershake/cybershake30_5 ../data/platforms/AL100_PRICE1.xml 0.25 0.0 900 200 0.2
../hex_price_1 arabnejad 5 ../data/workflows/cybershake/cybershake30_5 ../data/platforms/AL100_PRICE1.xml 0.25 0.0 900 225 0.2
../hex_price_1 arabnejad 5 ../data/workflows/cybershake/cybershake30_5 ../data/platforms/AL100_PRICE1.xml 0.25 0.0 900 250 0.2
../hex_price_1 arabnejad 5 ../data/workflows/cybershake/cybershake30_5 ../data/platforms/AL100_PRICE1.xml 0.25 0.0 900 275 0.2
../hex_price_1 arabnejad 6 ../data/workflows/cybershake/cybershake30_6 ../data/platforms/AL100_PRICE1.xml 0.25 0.0 900 150 0.2
../hex_price_1 arabnejad 6 ../data/workflows/cybershake/cybershake30_6 ../data/platforms/AL100_PRICE1.xml 0.25 0.0 900 175 0.2
../hex_price_1 arabnejad 5 ../data/workflows/cybershake/cybershake30_5 ../data/platforms/AL100_PRICE1.xml 0.25 0.0 900 300 0.2
../hex_price_1 arabnejad 6 ../data/workflows/cybershake/cybershake30_6 ../data/platforms/AL100_PRICE1.xml 0.25 0.0 900 200 0.2
../hex_price_1 arabnejad 6 ../data/workflows/cybershake/cybershake30_6 ../data/platforms/AL100_PRICE1.xml 0.25 0.0 900 225 0.2
../hex_price_1 arabnejad 6 ../data/workflows/cybershake/cybershake30_6 ../data/platforms/AL100_PRICE1.xml 0.25 0.0 900 250 0.2
../hex_price_1 arabnejad 7 ../data/workflows/cybershake/cybershake30_7 ../data/platforms/AL100_PRICE1.xml 0.25 0.0 900 150 0.2
../hex_price_1 arabnejad 7 ../data/workflows/cybershake/cybershake30_7 ../data/platforms/AL100_PRICE1.xml 0.25 0.0 900 200 0.2
../hex_price_1 arabnejad 7 ../data/workflows/cybershake/cybershake30_7 ../data/platforms/AL100_PRICE1.xml 0.25 0.0 900 175 0.2
../hex_price_1 arabnejad 7 ../data/workflows/cybershake/cybershake30_7 ../data/platforms/AL100_PRICE1.xml 0.25 0.0 900 225 0.2
../hex_price_1 arabnejad 7 ../data/workflows/cybershake/cybershake30_7 ../data/platforms/AL100_PRICE1.xml 0.25 0.0 900 250 0.2
../hex_price_1 arabnejad 7 ../data/workflows/cybershake/cybershake30_7 ../data/platforms/AL100_PRICE1.xml 0.25 0.0 900 275 0.2
../hex_price_1 arabnejad 8 ../data/workflows/cybershake/cybershake30_8 ../data/platforms/AL100_PRICE1.xml 0.25 0.0 900 150 0.2
../hex_price_1 arabnejad 8 ../data/workflows/cybershake/cybershake30_8 ../data/platforms/AL100_PRICE1.xml 0.25 0.0 900 175 0.2
../hex_price_1 arabnejad 8 ../data/workflows/cybershake/cybershake30_8 ../data/platforms/AL100_PRICE1.xml 0.25 0.0 900 200 0.2
../hex_price_1 arabnejad 8 ../data/workflows/cybershake/cybershake30_8 ../data/platforms/AL100_PRICE1.xml 0.25 0.0 900 250 0.2
../hex_price_1 arabnejad 8 ../data/workflows/cybershake/cybershake30_8 ../data/platforms/AL100_PRICE1.xml 0.25 0.0 900 225 0.2
../hex_price_1 arabnejad 9 ../data/workflows/cybershake/cybershake30_9 ../data/platforms/AL100_PRICE1.xml 0.25 0.0 900 175 0.2
../hex_price_1 arabnejad 9 ../data/workflows/cybershake/cybershake30_9 ../data/platforms/AL100_PRICE1.xml 0.25 0.0 900 150 0.2
../hex_price_1 arabnejad 9 ../data/workflows/cybershake/cybershake30_9 ../data/platforms/AL100_PRICE1.xml 0.25 0.0 900 200 0.2
../hex_price_1 arabnejad 9 ../data/workflows/cybershake/cybershake30_9 ../data/platforms/AL100_PRICE1.xml 0.25 0.0 900 225 0.2
../hex_price_1 ftlMultCascade 14 ../data/workflows/montage/montage30_14 ../data/platforms/AL100_PRICE1.xml 0.25 0.0 900 113 0.2
../hex_price_1 ftlMultCascade 14 ../data/workflows/montage/montage30_14 ../data/platforms/AL100_PRICE1.xml 0.25 0.0 900 134 0.2
../hex_price_1 ftl 14 ../data/workflows/montage/montage30_14 ../data/platforms/AL100_PRICE1.xml 0.25 0.0 900 155 0.2
../hex_price_1 ftl 14 ../data/workflows/montage/montage30_14 ../data/platforms/AL100_PRICE1.xml 0.25 0.0 900 176 0.2
../hex_price_1 ftlMultCascade 14 ../data/workflows/montage/montage30_14 ../data/platforms/AL100_PRICE1.xml 0.25 0.0 900 155 0.2
../hex_price_1 ftlMultCascade 14 ../data/workflows/montage/montage30_14 ../data/platforms/AL100_PRICE1.xml 0.25 0.0 900 176 0.2
../hex_price_1 ftlMultCascade 14 ../data/workflows/montage/montage30_14 ../data/platforms/AL100_PRICE1.xml 0.25 0.0 900 71 0.2
../hex_price_1 ftlMultCascade 14 ../data/workflows/montage/montage30_14 ../data/platforms/AL100_PRICE1.xml 0.25 0.0 900 92 0.2
../hex_price_1 ftlMultCascade 19 ../data/workflows/montage/montage30_19 ../data/platforms/AL100_PRICE1.xml 0.25 0.0 900 113 0.2
../hex_price_1 ftlMultCascade 19 ../data/workflows/montage/montage30_19 ../data/platforms/AL100_PRICE1.xml 0.25 0.0 900 134 0.2
../hex_price_1 ftl 19 ../data/workflows/montage/montage30_19 ../data/platforms/AL100_PRICE1.xml 0.25 0.0 900 155 0.2
../hex_price_1 ftl 19 ../data/workflows/montage/montage30_19 ../data/platforms/AL100_PRICE1.xml 0.25 0.0 900 176 0.2
../hex_price_1 arabnejad 20 ../data/workflows/montage/montage30_20 ../data/platforms/AL100_PRICE1.xml 0.25 0.0 900 50 0.2
../hex_price_1 ftlMultCascade 19 ../data/workflows/montage/montage30_19 ../data/platforms/AL100_PRICE1.xml 0.25 0.0 900 155 0.2
../hex_price_1 ftlMultCascade 19 ../data/workflows/montage/montage30_19 ../data/platforms/AL100_PRICE1.xml 0.25 0.0 900 176 0.2
../hex_price_1 ftlMultCascade 19 ../data/workflows/montage/montage30_19 ../data/platforms/AL100_PRICE1.xml 0.25 0.0 900 71 0.2
../hex_price_1 ftlMultCascade 19 ../data/workflows/montage/montage30_19 ../data/platforms/AL100_PRICE1.xml 0.25 0.0 900 92 0.2
../hex_price_1 ftlMultLastTaskLvl 14 ../data/workflows/montage/montage30_14 ../data/platforms/AL100_PRICE1.xml 0.25 0.0 900 113 0.2
../hex_price_1 ftlMultLastTaskLvl 14 ../data/workflows/montage/montage30_14 ../data/platforms/AL100_PRICE1.xml 0.25 0.0 900 155 0.2
../hex_price_1 ftlMultLastTaskLvl 14 ../data/workflows/montage/montage30_14 ../data/platforms/AL100_PRICE1.xml 0.25 0.0 900 134 0.2
../hex_price_1 ftlMultLastTaskLvl 14 ../data/workflows/montage/montage30_14 ../data/platforms/AL100_PRICE1.xml 0.25 0.0 900 176 0.2
../hex_price_1 ftlMultLastTaskLvl 14 ../data/workflows/montage/montage30_14 ../data/platforms/AL100_PRICE1.xml 0.25 0.0 900 71 0.2
../hex_price_1 ftlMultCascadeNbChild 14 ../data/workflows/montage/montage30_14 ../data/platforms/AL100_PRICE1.xml 0.25 0.0 900 113 0.2
../hex_price_1 ftlMultCascadeChildDesc 14 ../data/workflows/montage/montage30_14 ../data/platforms/AL100_PRICE1.xml 0.25 0.0 900 113 0.2
../hex_price_1 ftlMultCascadeNbChild 14 ../data/workflows/montage/montage30_14 ../data/platforms/AL100_PRICE1.xml 0.25 0.0 900 134 0.2
../hex_price_1 ftlMultCascadeChildDesc 14 ../data/workflows/montage/montage30_14 ../data/platforms/AL100_PRICE1.xml 0.25 0.0 900 134 0.2
../hex_price_1 ftlMultCascadeChildPath 14 ../data/workflows/montage/montage30_14 ../data/platforms/AL100_PRICE1.xml 0.25 0.0 900 113 0.2
../hex_price_1 ftlMultCascadeChildPath 14 ../data/workflows/montage/montage30_14 ../data/platforms/AL100_PRICE1.xml 0.25 0.0 900 134 0.2
../hex_price_1 ftlMultCascadeNbChild 14 ../data/workflows/montage/montage30_14 ../data/platforms/AL100_PRICE1.xml 0.25 0.0 900 155 0.2
../hex_price_1 ftlMultCascadeChildDesc 14 ../data/workflows/montage/montage30_14 ../data/platforms/AL100_PRICE1.xml 0.25 0.0 900 155 0.2
../hex_price_1 ftlMultCascadeChildPath 14 ../data/workflows/montage/montage30_14 ../data/platforms/AL100_PRICE1.xml 0.25 0.0 900 155 0.2
../hex_price_1 ftlMultCascadeNbChild 14 ../data/workflows/montage/montage30_14 ../data/platforms/AL100_PRICE1.xml 0.25 0.0 900 176 0.2
../hex_price_1 ftlMultCascadeChildDesc 14 ../data/workflows/montage/montage30_14 ../data/platforms/AL100_PRICE1.xml 0.25 0.0 900 176 0.2
../hex_price_1 ftlMultLastTaskLvl 14 ../data/workflows/montage/montage30_14 ../data/platforms/AL100_PRICE1.xml 0.25 0.0 900 92 0.2
../hex_price_1 ftlMultCascadeChildPath 14 ../data/workflows/montage/montage30_14 ../data/platforms/AL100_PRICE1.xml 0.25 0.0 900 176 0.2
../hex_price_1 ftlMultCascadeChildDesc 14 ../data/workflows/montage/montage30_14 ../data/platforms/AL100_PRICE1.xml 0.25 0.0 900 71 0.2
../hex_price_1 ftlMultCascadeNbChild 14 ../data/workflows/montage/montage30_14 ../data/platforms/AL100_PRICE1.xml 0.25 0.0 900 71 0.2
../hex_price_1 ftlMultCascadeNbChild 14 ../data/workflows/montage/montage30_14 ../data/platforms/AL100_PRICE1.xml 0.25 0.0 900 92 0.2
../hex_price_1 ftlMultCascadeChildDesc 14 ../data/workflows/montage/montage30_14 ../data/platforms/AL100_PRICE1.xml 0.25 0.0 900 92 0.2
../hex_price_1 ftlMultCascadeChildPath 14 ../data/workflows/montage/montage30_14 ../data/platforms/AL100_PRICE1.xml 0.25 0.0 900 71 0.2
../hex_price_1 ftlMultCascadeChildPath 14 ../data/workflows/montage/montage30_14 ../data/platforms/AL100_PRICE1.xml 0.25 0.0 900 92 0.2
../hex_price_1 ftlMultLastTaskLvl 19 ../data/workflows/montage/montage30_19 ../data/platforms/AL100_PRICE1.xml 0.25 0.0 900 113 0.2
../hex_price_1 ftlMultLastTaskLvl 19 ../data/workflows/montage/montage30_19 ../data/platforms/AL100_PRICE1.xml 0.25 0.0 900 155 0.2
../hex_price_1 ftlMultLastTaskLvl 19 ../data/workflows/montage/montage30_19 ../data/platforms/AL100_PRICE1.xml 0.25 0.0 900 176 0.2
../hex_price_1 ftlMultLastTaskLvl 19 ../data/workflows/montage/montage30_19 ../data/platforms/AL100_PRICE1.xml 0.25 0.0 900 134 0.2
../hex_price_1 ftlMultLastTaskLvl 19 ../data/workflows/montage/montage30_19 ../data/platforms/AL100_PRICE1.xml 0.25 0.0 900 71 0.2
../hex_price_1 ftlMultLastTaskLvl 19 ../data/workflows/montage/montage30_19 ../data/platforms/AL100_PRICE1.xml 0.25 0.0 900 92 0.2
../hex_price_1 ftlMultCascadeNbChild 19 ../data/workflows/montage/montage30_19 ../data/platforms/AL100_PRICE1.xml 0.25 0.0 900 113 0.2
../hex_price_1 ftlMultCascadeChildDesc 19 ../data/workflows/montage/montage30_19 ../data/platforms/AL100_PRICE1.xml 0.25 0.0 900 113 0.2
../hex_price_1 ftlMultCascadeChildPath 19 ../data/workflows/montage/montage30_19 ../data/platforms/AL100_PRICE1.xml 0.25 0.0 900 113 0.2
../hex_price_1 ftlMultCascadeNbChild 19 ../data/workflows/montage/montage30_19 ../data/platforms/AL100_PRICE1.xml 0.25 0.0 900 134 0.2
../hex_price_1 ftlMultCascadeChildDesc 19 ../data/workflows/montage/montage30_19 ../data/platforms/AL100_PRICE1.xml 0.25 0.0 900 134 0.2
../hex_price_1 ftlMultCascadeChildPath 19 ../data/workflows/montage/montage30_19 ../data/platforms/AL100_PRICE1.xml 0.25 0.0 900 134 0.2
../hex_price_1 ftlMultCascadeNbChild 19 ../data/workflows/montage/montage30_19 ../data/platforms/AL100_PRICE1.xml 0.25 0.0 900 155 0.2
../hex_price_1 ftlMultCascadeChildDesc 19 ../data/workflows/montage/montage30_19 ../data/platforms/AL100_PRICE1.xml 0.25 0.0 900 155 0.2
../hex_price_1 ftlMultCascadeNbChild 19 ../data/workflows/montage/montage30_19 ../data/platforms/AL100_PRICE1.xml 0.25 0.0 900 176 0.2
../hex_price_1 ftlMultCascadeChildPath 19 ../data/workflows/montage/montage30_19 ../data/platforms/AL100_PRICE1.xml 0.25 0.0 900 155 0.2
../hex_price_1 ftlMultCascadeChildDesc 19 ../data/workflows/montage/montage30_19 ../data/platforms/AL100_PRICE1.xml 0.25 0.0 900 176 0.2
../hex_price_1 ftlMultCascadeChildPath 19 ../data/workflows/montage/montage30_19 ../data/platforms/AL100_PRICE1.xml 0.25 0.0 900 176 0.2
../hex_price_1 ftlMultCascadeNbChild 19 ../data/workflows/montage/montage30_19 ../data/platforms/AL100_PRICE1.xml 0.25 0.0 900 71 0.2
../hex_price_1 ftlMultCascadeChildDesc 19 ../data/workflows/montage/montage30_19 ../data/platforms/AL100_PRICE1.xml 0.25 0.0 900 71 0.2
../hex_price_1 ftlMultCascadeChildPath 19 ../data/workflows/montage/montage30_19 ../data/platforms/AL100_PRICE1.xml 0.25 0.0 900 71 0.2
../hex_price_1 ftlMultCascadeNbChild 19 ../data/workflows/montage/montage30_19 ../data/platforms/AL100_PRICE1.xml 0.25 0.0 900 92 0.2
../hex_price_1 ftlMultCascadeChildDesc 19 ../data/workflows/montage/montage30_19 ../data/platforms/AL100_PRICE1.xml 0.25 0.0 900 92 0.2
../hex_price_1 ftlMultCascadeChildPath 19 ../data/workflows/montage/montage30_19 ../data/platforms/AL100_PRICE1.xml 0.25 0.0 900 92 0.2
